<?xml version="1.0" encoding="UTF-8"?>
<svg width="32px" height="18px" viewBox="0 0 32 18" version="1.1" xmlns="http://www.w3.org/2000/svg" xmlns:xlink="http://www.w3.org/1999/xlink">
    <title>icon 电量 充电中备份 3</title>
    <g id="页面-1" stroke="none" stroke-width="1" fill="none" fill-rule="evenodd">
        <g id="mini交互文档" transform="translate(-871.000000, -801.000000)" fill="#30D158" fill-rule="nonzero">
            <g id="icon-电量-充电中备份-3" transform="translate(871.000000, 801.000000)">
                <path d="M30.759226,6.3859637 C30.6029608,6.29806971 30.5029512,6.13743585 30.5029512,5.96467869 L30.5029512,2.95506706 C30.5029512,1.33054356 29.1309434,5.15011963e-06 27.4557814,5.15011963e-06 L3.04716981,5.15011963e-06 C1.37200774,-0.0030205096 0,1.32751273 0,2.95203623 L0,14.4964579 C0,16.1240122 1.37200774,17.4545455 3.04716981,17.4545455 L27.452656,17.4545455 C29.1278181,17.4545455 30.4998259,16.1240122 30.4998259,14.4994887 L30.4998259,11.4898771 C30.4998259,11.3140891 30.5998355,11.1564861 30.7561007,11.0685921 C31.4999226,10.6473071 31.9999856,9.86535358 31.9999856,8.97125949 L31.9999856,8.48632711 C32.0030963,7.58920219 31.5030479,6.80421789 30.759226,6.3859637 Z M28.5027576,14.4994887 C28.5027576,14.863188 28.3089889,15.1026234 28.1933527,15.214764 C28.0777165,15.3269046 27.8276923,15.5148159 27.4557814,15.5148159 L3.04716981,15.5148159 C2.67525883,15.5148159 2.42523464,15.3269046 2.30959845,15.214764 C2.19396227,15.1026234 2.00019352,14.8601572 2.00019352,14.4994887 L2.00019352,2.95203623 C2.00019352,2.59136777 2.19396227,2.34890157 2.30959845,2.23676096 C2.42523464,2.12462034 2.67525883,1.93670904 3.04716981,1.93670904 L27.452656,1.93670904 C27.824567,1.93670904 28.0745912,2.12462034 28.1902274,2.23676096 C28.3058636,2.34890157 28.4996323,2.59136777 28.4996323,2.95203623 L28.4996323,14.4994887 L28.5027576,14.4994887 Z" id="形状"></path>
                <path d="M19.0002903,3.6339724 L19.0002903,13.8175525 C19.0002903,14.0842654 18.8202903,14.3024849 18.6002903,14.3024849 L3.40029028,14.3024849 C3.18029028,14.3024849 3.00029028,14.0842654 3.00029028,13.8175525 L3.00029028,3.6339724 C3.00029028,3.36725959 3.18029028,3.14904001 3.40029028,3.14904001 L18.6002903,3.14904001 C18.8202903,3.14904001 19.0002903,3.36725959 19.0002903,3.6339724 Z" id="路径"></path>
            </g>
        </g>
    </g>
</svg>