<?xml version="1.0" encoding="UTF-8"?>
<svg width="46px" height="46px" viewBox="0 0 46 46" version="1.1" xmlns="http://www.w3.org/2000/svg" xmlns:xlink="http://www.w3.org/1999/xlink">
    <title>编组 2</title>
    <g id="白色页面" stroke="none" stroke-width="1" fill="none" fill-rule="evenodd">
        <g id="捕捉扫描---开始扫描---未扫描" transform="translate(-276.000000, -123.000000)" fill="#01E265">
            <g id="扫描信息" transform="translate(20.000000, 112.000000)">
                <g id="编组-2" transform="translate(256.000000, 11.000000)">
                    <circle id="装饰" opacity="0.0752634448" cx="23" cy="23" r="14"></circle>
                    <circle id="装饰" opacity="0.0302961483" cx="23" cy="23" r="23"></circle>
                    <circle id="装饰" cx="23" cy="23" r="7"></circle>
                </g>
            </g>
        </g>
    </g>
</svg>