<?xml version="1.0" encoding="UTF-8"?>
<svg width="40px" height="40px" viewBox="0 0 40 40" version="1.1" xmlns="http://www.w3.org/2000/svg" xmlns:xlink="http://www.w3.org/1999/xlink">
    <title>icon 工程管理 hover备份</title>
    <defs>
        <filter id="filter-1">
            <feColorMatrix in="SourceGraphic" type="matrix" values="0 0 0 0 0.011765 0 0 0 0 0.043137 0 0 0 0 0.101961 0 0 0 1.000000 0"></feColorMatrix>
        </filter>
    </defs>
    <g id="白色页面" stroke="none" stroke-width="1" fill="none" fill-rule="evenodd">
        <g id="白色风格切图" transform="translate(-585.000000, -663.000000)">
            <g id="icon-工程管理-hover备份" transform="translate(482.000000, 663.000000)" filter="url(#filter-1)">
                <g transform="translate(103.000000, 0.000000)">
                    <polygon id="路径" fill="#202425" fill-rule="nonzero" opacity="0" points="0 0 40 0 40 40 0 40"></polygon>
                    <path d="M18.0853333,3.40266668 C19.3177653,2.92862265 20.6822347,2.92862265 21.9146667,3.40266668 L34.0973333,8.08933332 C35.2373333,8.52666664 35.2373333,10.14 34.0973333,10.5773333 L21.9146667,15.264 C20.6822347,15.738044 19.3177653,15.738044 18.0853333,15.264 L5.90266668,10.5773333 C4.76266668,10.14 4.76266668,8.52666664 5.90266668,8.08933332 L18.0853333,3.40266668 Z M6.28,13.7146667 C5.46047002,13.4034637 4.54033368,13.5149238 3.81881105,14.012801 C3.09728841,14.5106783 2.66666652,15.331372 2.66666652,16.208 L2.66666652,28.8386667 C2.66613345,31.0495294 4.02970138,33.0315027 6.09466668,33.8213333 L15.048,37.244 C15.8676998,37.5572764 16.7890583,37.4472242 17.5119112,36.9496969 C18.2347642,36.4521695 18.6666665,35.6308582 18.6666665,34.7533333 L18.6666665,20.2533333 C18.6666665,19.1456591 17.9821939,18.1532243 16.9466667,17.76 L6.28,13.7133333 L6.28,13.7146667 Z" id="形状" fill="#304FFE" fill-rule="nonzero"></path>
                    <path d="M33.72,13.7146667 C34.53953,13.4034637 35.4596663,13.5149238 36.181189,14.012801 C36.9027116,14.5106783 37.3333333,15.331372 37.3333333,16.208 L37.3333333,28.8386667 C37.3336553,31.0498649 35.9694899,33.0319356 33.904,33.8213333 L24.952,37.244 C24.1323002,37.5572764 23.2109417,37.4472242 22.4880888,36.9496969 C21.7652358,36.4521695 21.3333333,35.6308582 21.3333333,34.7533333 L21.3333333,20.2533333 C21.3333333,19.1456591 22.0178061,18.1532243 23.0533333,17.76 L33.72,13.7133333 L33.72,13.7146667 Z" id="路径" fill="#304FFE"></path>
                </g>
            </g>
        </g>
    </g>
</svg>